Introduction to Graph/Network Analysis
…
## See spec(...) for full column specifications.

print(canidae)

## # A tibble: 865 x 114
##    occurrence_no record_type reid_no flags collection_no accepted_name
##            <int> <chr>         <int> <chr>         <int> <chr>        
##  1        181200 occ           30158 <NA>          17451 Leptocyon    
##  2        181201 occ            4275 <NA>          17451 Paraenhydroc
##  3        181218 occ              NA <NA>          17455 Enhydrocyon  
##  4        181223 occ            4291 <NA>          17456 Leptocyon    
##  5        182470 occ              NA <NA>          17704 Mesocyon     
##  6        182471 occ              NA <NA>          17704 Enhydrocyon  
##  7        182579 occ              NA <NA>          17736 Desmocyon    
##  8        182583 occ              NA <NA>          17738 Desmocyon    
##  9        182602 occ            4918 <NA>          22641 Phlaocyon    
## 10        182609 occ              NA <NA>          17743 Enhydrocyon  
## # ... with 855 more rows, and 108 more variables: accepted_attr <chr>,
## #   accepted_rank <chr>, accepted_no <int>, early_interval <chr>,
## #   late_interval <chr>, max_ma <dbl>, min_ma <dbl>, ref_author <chr>,
## #   ref_pubyr <int>, reference_no <int>, phylum <chr>, class <chr>,
## #   order <chr>, family <chr>, genus <chr>, plant_organ <chr>,
## #   plant_organ2 <chr>, abund_value <int>, abund_unit <chr>, lng <dbl>,
## #   lat <dbl>, occurrence_comments <chr>, collection_name <chr>,
## #   collection_subset <chr>, collection_aka <chr>, cc <chr>, state <chr>,
## #   county <chr>, latlng_basis <chr>, latlng_precision <chr>,
…
